<?xml version="1.0" encoding="UTF-8"?>
<glyph name="v1v1u1" format="2">
	<advance width="1673"/>
	<outline>
		<component base="u_sign_drop" xOffset="916" yOffset="-301"/>
		<component base="v1v1"/>
	</outline>
	<lib>
		<dict>
			<key>org.fontforge.glyphclass</key>
			<string>baseligature</string>
		</dict>
	</lib>
</glyph>
