<?xml version="1.0" encoding="UTF-8"?>
<glyph name="G" format="2">
	<unicode hex="0047"/>
	<advance width="1398"/>
	<outline>
		<contour>
			<point x="55" y="699" type="curve" smooth="yes"/>
			<point x="55" y="1092"/>
			<point x="350" y="1455"/>
			<point x="782" y="1455" type="curve" smooth="yes"/>
			<point x="981" y="1455"/>
			<point x="1139" y="1398"/>
			<point x="1280" y="1298" type="curve" smooth="yes"/>
			<point x="1305" y="1281"/>
			<point x="1323" y="1248"/>
			<point x="1323" y="1218" type="curve" smooth="yes"/>
			<point x="1323" y="1164"/>
			<point x="1278" y="1119"/>
			<point x="1223" y="1119" type="curve" smooth="yes"/>
			<point x="1203" y="1119"/>
			<point x="1181" y="1126"/>
			<point x="1164" y="1138" type="curve" smooth="yes"/>
			<point x="1060" y="1209"/>
			<point x="924" y="1254"/>
			<point x="787" y="1254" type="curve" smooth="yes"/>
			<point x="476" y="1254"/>
			<point x="253" y="994"/>
			<point x="253" y="703" type="curve" smooth="yes"/>
			<point x="253" y="404"/>
			<point x="463" y="190"/>
			<point x="775" y="190" type="curve" smooth="yes"/>
			<point x="889" y="190"/>
			<point x="1007" y="216"/>
			<point x="1100" y="246" type="curve"/>
			<point x="1097" y="587" type="line"/>
			<point x="792" y="587" type="line" smooth="yes"/>
			<point x="737" y="587"/>
			<point x="692" y="632"/>
			<point x="692" y="687" type="curve" smooth="yes"/>
			<point x="692" y="742"/>
			<point x="737" y="787"/>
			<point x="792" y="787" type="curve" smooth="yes"/>
			<point x="1197" y="787" type="line" smooth="yes"/>
			<point x="1251" y="787"/>
			<point x="1297" y="743"/>
			<point x="1297" y="688" type="curve" smooth="yes"/>
			<point x="1301" y="177" type="line"/>
			<point x="1301" y="176" type="line" smooth="yes"/>
			<point x="1301" y="138"/>
			<point x="1274" y="99"/>
			<point x="1238" y="86" type="curve" smooth="yes"/>
			<point x="1110" y="35"/>
			<point x="953" y="-11"/>
			<point x="782" y="-11" type="curve" smooth="yes"/>
			<point x="361" y="-11"/>
			<point x="55" y="284"/>
		</contour>
	</outline>
	<lib>
		<dict>
			<key>org.fontforge.glyphclass</key>
			<string>baseglyph</string>
		</dict>
	</lib>
</glyph>
