<?xml version="1.0" encoding="UTF-8"?>
<glyph name="mlpara" format="2">
	<unicode hex="0D4F"/>
	<advance width="2523"/>
	<outline>
		<contour>
			<point x="406" y="1093" type="curve" smooth="yes"/>
			<point x="462" y="1093"/>
			<point x="506" y="1047"/>
			<point x="506" y="993" type="curve" smooth="yes"/>
			<point x="506" y="971"/>
			<point x="494" y="939"/>
			<point x="478" y="923" type="curve" smooth="yes"/>
			<point x="375" y="812"/>
			<point x="300" y="643"/>
			<point x="300" y="476" type="curve" smooth="yes"/>
			<point x="300" y="-37"/>
			<point x="781" y="-283"/>
			<point x="1296" y="-283" type="curve" smooth="yes"/>
			<point x="1782" y="-283"/>
			<point x="2223" y="-34"/>
			<point x="2223" y="453" type="curve" smooth="yes"/>
			<point x="2223" y="680"/>
			<point x="2082" y="892"/>
			<point x="1853" y="892" type="curve" smooth="yes"/>
			<point x="1654.8157958984" y="892"/>
			<point x="1585" y="723.2188110352"/>
			<point x="1585" y="525" type="curve" smooth="yes"/>
			<point x="1585.9978027344" y="377.6644592285"/>
			<point x="1587.0134277344" y="230.3467712402"/>
			<point x="1588" y="83" type="curve" smooth="yes"/>
			<point x="1588" y="28"/>
			<point x="1543" y="-16"/>
			<point x="1488" y="-16" type="curve" smooth="yes"/>
			<point x="1434" y="-16"/>
			<point x="1389" y="28"/>
			<point x="1388" y="82" type="curve" smooth="yes"/>
			<point x="1385" y="525" type="line" smooth="yes"/>
			<point x="1383" y="749"/>
			<point x="1305" y="892"/>
			<point x="1085" y="892" type="curve" smooth="yes"/>
			<point x="955" y="892"/>
			<point x="836" y="816"/>
			<point x="771" y="730" type="curve"/>
			<point x="816" y="748"/>
			<point x="866" y="758"/>
			<point x="915" y="758" type="curve" smooth="yes"/>
			<point x="1125" y="758"/>
			<point x="1300" y="594"/>
			<point x="1300" y="374" type="curve" smooth="yes"/>
			<point x="1300" y="156.7005462646"/>
			<point x="1135.6643066406" y="-7"/>
			<point x="920" y="-7" type="curve" smooth="yes"/>
			<point x="653" y="-7"/>
			<point x="485" y="229"/>
			<point x="485" y="479" type="curve" smooth="yes"/>
			<point x="485" y="808"/>
			<point x="744" y="1092"/>
			<point x="1082" y="1092" type="curve" smooth="yes"/>
			<point x="1261" y="1092"/>
			<point x="1396" y="1011"/>
			<point x="1479" y="905" type="curve"/>
			<point x="1554" y="1010"/>
			<point x="1685" y="1092"/>
			<point x="1852" y="1092" type="curve" smooth="yes"/>
			<point x="2199" y="1092"/>
			<point x="2423" y="792"/>
			<point x="2423" y="455" type="curve" smooth="yes"/>
			<point x="2423" y="-153"/>
			<point x="1894" y="-483"/>
			<point x="1297" y="-483" type="curve" smooth="yes"/>
			<point x="668" y="-483"/>
			<point x="100" y="-157"/>
			<point x="100" y="475" type="curve" smooth="yes"/>
			<point x="100" y="702"/>
			<point x="193" y="912"/>
			<point x="332" y="1060" type="curve" smooth="yes"/>
			<point x="348" y="1078"/>
			<point x="382" y="1093"/>
		</contour>
		<contour>
			<point x="1099" y="374" type="curve" smooth="yes"/>
			<point x="1099" y="479"/>
			<point x="1015" y="558"/>
			<point x="915" y="558" type="curve" smooth="yes"/>
			<point x="813" y="558"/>
			<point x="730" y="477"/>
			<point x="730" y="375" type="curve" smooth="yes"/>
			<point x="730" y="267"/>
			<point x="813" y="193"/>
			<point x="920" y="193" type="curve" smooth="yes"/>
			<point x="1022" y="193"/>
			<point x="1099" y="271"/>
		</contour>
	</outline>
</glyph>
