<?xml version="1.0" encoding="UTF-8"?>
<glyph name="vocalic_r_sign_drop" format="2">
	<advance width="877"/>
	<outline>
		<contour>
			<point x="619" y="-628" type="curve" smooth="yes"/>
			<point x="619" y="-573"/>
			<point x="579" y="-542"/>
			<point x="463" y="-542" type="curve" smooth="yes"/>
			<point x="324" y="-542"/>
			<point x="271" y="-576"/>
			<point x="271" y="-636" type="curve" smooth="yes"/>
			<point x="271" y="-673"/>
			<point x="311" y="-704"/>
			<point x="450" y="-704" type="curve" smooth="yes"/>
			<point x="576" y="-704"/>
			<point x="619" y="-672"/>
		</contour>
		<contour>
			<point x="909" y="-5" type="line"/>
			<point x="1084" y="140" type="line"/>
			<point x="1084" y="38"/>
			<point x="1091" y="-52"/>
			<point x="1091" y="-151" type="curve" smooth="yes"/>
			<point x="1091" y="-621"/>
			<point x="916" y="-895"/>
			<point x="441" y="-895" type="curve" smooth="yes"/>
			<point x="268" y="-895"/>
			<point x="79" y="-825"/>
			<point x="79" y="-634" type="curve" smooth="yes"/>
			<point x="79" y="-444"/>
			<point x="268" y="-366"/>
			<point x="440" y="-366" type="curve" smooth="yes"/>
			<point x="599" y="-366"/>
			<point x="760" y="-425"/>
			<point x="801" y="-570" type="curve"/>
			<point x="899" y="-446"/>
			<point x="909" y="-249"/>
			<point x="909" y="-17" type="curve" smooth="yes"/>
		</contour>
	</outline>
	<lib>
		<dict>
			<key>org.fontforge.glyphclass</key>
			<string>baseglyph</string>
		</dict>
	</lib>
</glyph>
