<?xml version="1.0" encoding="UTF-8"?>
<glyph name="zh" format="2">
	<unicode hex="0D34"/>
	<advance width="1269"/>
	<outline>
		<contour>
			<point x="600" y="503" type="curve"/>
			<point x="540" y="565"/>
			<point x="475" y="650"/>
			<point x="475" y="762" type="curve" smooth="yes"/>
			<point x="475" y="937"/>
			<point x="634" y="1091"/>
			<point x="825" y="1091" type="curve" smooth="yes"/>
			<point x="1020" y="1091"/>
			<point x="1194" y="933"/>
			<point x="1194" y="732" type="curve" smooth="yes"/>
			<point x="1194" y="556"/>
			<point x="1067" y="431"/>
			<point x="943" y="372" type="curve"/>
			<point x="953" y="343"/>
			<point x="959" y="312"/>
			<point x="959" y="280" type="curve" smooth="yes"/>
			<point x="959" y="103"/>
			<point x="793" y="-12"/>
			<point x="605" y="-12" type="curve" smooth="yes"/>
			<point x="478" y="-12"/>
			<point x="355" y="40"/>
			<point x="266" y="127" type="curve" smooth="yes"/>
			<point x="249" y="143"/>
			<point x="236" y="169"/>
			<point x="236" y="194" type="curve" smooth="yes"/>
			<point x="236" y="246"/>
			<point x="279" y="287"/>
			<point x="331" y="287" type="curve" smooth="yes"/>
			<point x="354" y="287"/>
			<point x="383" y="276"/>
			<point x="399" y="260" type="curve" smooth="yes"/>
			<point x="454" y="208"/>
			<point x="532" y="180"/>
			<point x="608" y="180" type="curve" smooth="yes"/>
			<point x="701" y="180"/>
			<point x="767" y="223"/>
			<point x="767" y="287" type="curve" smooth="yes"/>
			<point x="767" y="300"/>
			<point x="764" y="311"/>
			<point x="760" y="321" type="curve"/>
			<point x="726" y="317"/>
			<point x="695" y="314"/>
			<point x="663" y="314" type="curve" smooth="yes"/>
			<point x="406" y="314"/>
			<point x="75" y="448"/>
			<point x="75" y="770" type="curve" smooth="yes"/>
			<point x="75" y="879"/>
			<point x="122" y="988"/>
			<point x="210" y="1062" type="curve" smooth="yes"/>
			<point x="226" y="1076"/>
			<point x="251" y="1087"/>
			<point x="273" y="1087" type="curve" smooth="yes"/>
			<point x="325" y="1087"/>
			<point x="368" y="1046"/>
			<point x="368" y="994" type="curve" smooth="yes"/>
			<point x="368" y="969"/>
			<point x="356" y="940"/>
			<point x="335" y="923" type="curve" smooth="yes"/>
			<point x="292" y="886"/>
			<point x="268" y="828"/>
			<point x="268" y="770" type="curve" smooth="yes"/>
			<point x="268" y="601"/>
			<point x="429" y="519"/>
		</contour>
		<contour>
			<point x="1003" y="730" type="curve" smooth="yes"/>
			<point x="1003" y="828"/>
			<point x="922" y="898"/>
			<point x="825" y="898" type="curve" smooth="yes"/>
			<point x="735" y="898"/>
			<point x="669" y="837"/>
			<point x="669" y="758" type="curve" smooth="yes"/>
			<point x="669" y="662"/>
			<point x="764" y="607"/>
			<point x="840" y="531" type="curve"/>
			<point x="927" y="566"/>
			<point x="1003" y="630"/>
		</contour>
	</outline>
	<lib>
		<dict>
			<key>org.fontforge.glyphclass</key>
			<string>baseglyph</string>
		</dict>
	</lib>
</glyph>
