<?xml version="1.0" encoding="UTF-8"?>
<glyph name="J" format="2">
	<unicode hex="004A"/>
	<advance width="944"/>
	<outline>
		<contour>
			<point x="120" y="408" type="curve" smooth="yes"/>
			<point x="169" y="408"/>
			<point x="200" y="376"/>
			<point x="200" y="333" type="curve" smooth="yes"/>
			<point x="200" y="332" type="line" smooth="yes"/>
			<point x="200" y="222"/>
			<point x="292" y="130"/>
			<point x="404" y="130" type="curve" smooth="yes"/>
			<point x="615" y="130"/>
			<point x="674" y="327"/>
			<point x="674" y="559" type="curve" smooth="yes"/>
			<point x="674" y="593" type="line"/>
			<point x="664" y="1307" type="line"/>
			<point x="664" y="1309" type="line" smooth="yes"/>
			<point x="664" y="1349"/>
			<point x="699" y="1384"/>
			<point x="739" y="1384" type="curve" smooth="yes"/>
			<point x="780" y="1384"/>
			<point x="814" y="1350"/>
			<point x="814" y="1309" type="curve" smooth="yes"/>
			<point x="824" y="595" type="line" smooth="yes"/>
			<point x="824" y="583"/>
			<point x="824" y="571"/>
			<point x="824" y="559" type="curve" smooth="yes"/>
			<point x="824" y="232"/>
			<point x="706" y="-18"/>
			<point x="406" y="-18" type="curve" smooth="yes"/>
			<point x="207" y="-18"/>
			<point x="50" y="133"/>
			<point x="50" y="333" type="curve" smooth="yes"/>
			<point x="50" y="371"/>
			<point x="84" y="408"/>
		</contour>
	</outline>
	<lib>
		<dict>
			<key>org.fontforge.glyphclass</key>
			<string>baseglyph</string>
		</dict>
	</lib>
</glyph>
