<?xml version="1.0" encoding="UTF-8"?>
<glyph name="n1th3r3u2" format="2">
	<advance width="2379"/>
	<outline>
		<component base="uu_sign_drop" xOffset="1727" yOffset="-280"/>
		<component base="n1th3r3"/>
	</outline>
	<lib>
		<dict>
			<key>org.fontforge.glyphclass</key>
			<string>baseligature</string>
		</dict>
	</lib>
</glyph>
