<?xml version="1.0" encoding="UTF-8"?>
<glyph name="v1r3" format="2">
	<advance width="2106"/>
	<outline>
		<contour>
			<point x="483" y="483" type="curve" smooth="yes"/>
			<point x="483" y="786"/>
			<point x="735" y="1000"/>
			<point x="1033" y="1000" type="curve" smooth="yes"/>
			<point x="1337" y="1000"/>
			<point x="1589" y="773"/>
			<point x="1589" y="464" type="curve" smooth="yes"/>
			<point x="1589" y="343"/>
			<point x="1544" y="235"/>
			<point x="1455" y="140" type="curve"/>
			<point x="1863" y="140" type="line"/>
			<point x="1863" y="948" type="line" smooth="yes"/>
			<point x="1863" y="972"/>
			<point x="1905" y="1004"/>
			<point x="1931" y="1004" type="curve" smooth="yes"/>
			<point x="1977" y="1004"/>
			<point x="2006" y="974"/>
			<point x="2006" y="934" type="curve" smooth="yes"/>
			<point x="2006" y="-24" type="line" smooth="yes"/>
			<point x="2006" y="-230"/>
			<point x="1853" y="-357"/>
			<point x="1641" y="-357" type="curve" smooth="yes"/>
			<point x="877" y="-357" type="line" smooth="yes"/>
			<point x="608" y="-357"/>
			<point x="370" y="-190"/>
			<point x="244" y="-8" type="curve" smooth="yes"/>
			<point x="147" y="133"/>
			<point x="98" y="283"/>
			<point x="98" y="443" type="curve" smooth="yes"/>
			<point x="98" y="670"/>
			<point x="174" y="836"/>
			<point x="289" y="974" type="curve" smooth="yes"/>
			<point x="303" y="991"/>
			<point x="320" y="1000"/>
			<point x="341" y="1000" type="curve" smooth="yes"/>
			<point x="380" y="1000"/>
			<point x="413" y="968"/>
			<point x="413" y="930" type="curve" smooth="yes"/>
			<point x="413" y="912"/>
			<point x="407" y="897"/>
			<point x="396" y="884" type="curve" smooth="yes"/>
			<point x="302" y="771"/>
			<point x="240" y="631"/>
			<point x="240" y="442" type="curve" smooth="yes"/>
			<point x="240" y="75"/>
			<point x="530" y="-217"/>
			<point x="879" y="-217" type="curve" smooth="yes"/>
			<point x="1641" y="-217" type="line" smooth="yes"/>
			<point x="1730" y="-217"/>
			<point x="1750" y="-207"/>
			<point x="1809" y="-163" type="curve" smooth="yes"/>
			<point x="1856" y="-129"/>
			<point x="1866" y="-93"/>
			<point x="1866" y="-22" type="curve" smooth="yes"/>
			<point x="1866" y="-2" type="line"/>
			<point x="1212" y="-2" type="line" smooth="yes"/>
			<point x="1176" y="-2"/>
			<point x="1142" y="32"/>
			<point x="1142" y="67" type="curve" smooth="yes"/>
			<point x="1142" y="111"/>
			<point x="1171" y="131"/>
			<point x="1212" y="143" type="curve" smooth="yes"/>
			<point x="1336" y="177"/>
			<point x="1449" y="323"/>
			<point x="1449" y="470" type="curve" smooth="yes"/>
			<point x="1449" y="504"/>
			<point x="1444" y="539"/>
			<point x="1433" y="574" type="curve" smooth="yes"/>
			<point x="1385" y="734"/>
			<point x="1240" y="859"/>
			<point x="1031" y="859" type="curve" smooth="yes"/>
			<point x="814" y="859"/>
			<point x="623" y="705"/>
			<point x="623" y="486" type="curve" smooth="yes"/>
			<point x="623" y="402"/>
			<point x="654" y="326"/>
			<point x="692" y="275" type="curve" smooth="yes"/>
			<point x="737" y="214"/>
			<point x="837" y="142"/>
			<point x="926" y="137" type="curve" smooth="yes"/>
			<point x="986" y="133"/>
			<point x="1016" y="109"/>
			<point x="1016" y="65" type="curve" smooth="yes"/>
			<point x="1016" y="34"/>
			<point x="987" y="-5"/>
			<point x="959" y="-5" type="curve" smooth="yes"/>
			<point x="794" y="-5"/>
			<point x="654" y="92"/>
			<point x="580" y="192" type="curve" smooth="yes"/>
			<point x="527" y="264"/>
			<point x="483" y="366"/>
		</contour>
	</outline>
	<lib>
		<dict>
			<key>org.fontforge.glyphclass</key>
			<string>baseligature</string>
		</dict>
	</lib>
</glyph>
